{
  "name": "hedera-remix-plugin",
  "displayName": "Hedera Plugin",
  "description": "Deploy and interact with Hedera.",
  "events": [],
  "methods": [],
  "url": "https://purestake.github.io/moonbeam-remix-plugin",
  "icon": "https://purestake.github.io/moonbeam-remix-plugin/icon.png",
  "documentation": "https://github.com/purestake/moonbeam-remix-plugin",
  "version": "0.0.1",
  "location": "sidePanel"
}